\relax 
\citation{Dosovitskiy_2015_CVPR}
\citation{2015arXiv151106702T}
\citation{shapenet2015}
\citation{Dosovitskiy_2015_CVPR}
\citation{2015arXiv151106702T}
\citation{wang2015unsupervised}
\citation{wang2015unsupervised}
\providecommand \oddpage@label [2]{}
\@writefile{toc}{\contentsline {section}{\numberline {1}Abstract}{1}}
\@writefile{toc}{\contentsline {section}{\numberline {2}Dataset and Tasks}{1}}
\newlabel{sec:dataset_and_tasks}{{2}{1}}
\@writefile{toc}{\contentsline {section}{\numberline {3}Learning from 3d model}{1}}
\newlabel{sec:network_design}{{3}{1}}
\@writefile{toc}{\contentsline {subsection}{\numberline {3.1}Triplet Network}{1}}
\newlabel{sub:trip}{{3.1}{1}}
\citation{wang2015unsupervised}
\citation{carreira2015human}
\@writefile{lof}{\contentsline {figure}{\numberline {1}{\ignorespaces  Pic credit to \cite  {wang2015unsupervised}. Siamese-triplet network. Each base network in the Siamese-triplet network share the same architecture and parameter weights. The architecture is rectified from AlexNet by using only two fully connected layers. Given a triplet of training samples, we obtain their features from the last layer by forward propagation and compute the ranking loss.\relax }}{2}}
\@writefile{toc}{\contentsline {subsection}{\numberline {3.2}Loss Function}{2}}
\newlabel{sub:loss_function}{{3.2}{2}}
\@writefile{toc}{\contentsline {subsection}{\numberline {3.3}2-Stage Training}{2}}
\newlabel{sec:training}{{3.3}{2}}
\providecommand*\caption@xref[2]{\@setref\relax\@undefined{#1}}
\newlabel{fig:2-Stage}{{\caption@xref {fig:2-Stage}{ on input line 105}}{3}}
\@writefile{lof}{\contentsline {figure}{\numberline {2}{\ignorespaces In the first stage, we view objects from same category as the same. In the second stage, we view objects discriminately. Here 3 cars are viewed as the same in first stage, but different in the second stage.\relax }}{3}}
\@writefile{toc}{\contentsline {section}{\numberline {4}Results and Visualization}{3}}
\newlabel{sec:results_and_visualization}{{4}{3}}
\@writefile{toc}{\contentsline {subsection}{\numberline {4.1}Preliminary Results}{3}}
\newlabel{sub:preliminary_results}{{4.1}{3}}
\newlabel{tab:title}{{4.1}{3}}
\@writefile{lot}{\contentsline {table}{\numberline {1}{\ignorespaces Table shows the results of our approach(Triplet), AlexNet with cosine distances, AlexNet with Euclidean distance's performance on task 1 and task 2. Our methods outperform original AlexNet by a great step.\relax }}{3}}
\bibstyle{unsrt}
\bibdata{sample}
\bibcite{Dosovitskiy_2015_CVPR}{1}
\@writefile{toc}{\contentsline {subsection}{\numberline {4.2}Patches hit the greatest resposnses}{4}}
\newlabel{sub:patches_hit_the_greatest_resposnses}{{4.2}{4}}
\@writefile{lof}{\contentsline {figure}{\numberline {3}{\ignorespaces Image Patches that generate the greatest response at Conv3 layer\relax }}{4}}
\@writefile{lof}{\contentsline {figure}{\numberline {4}{\ignorespaces Image Patches that generate the greatest response at Conv5 layer\relax }}{4}}
\@writefile{lof}{\contentsline {figure}{\numberline {5}{\ignorespaces Image Patches that generate the greatest response at Conv5 layer of \bf  {our approach}\relax }}{4}}
\@writefile{lof}{\contentsline {figure}{\numberline {6}{\ignorespaces Image Patches that generate the greatest response at Conv5 layer of \bf  {AlexNet}\relax }}{4}}
\bibcite{2015arXiv151106702T}{2}
\bibcite{shapenet2015}{3}
\bibcite{wang2015unsupervised}{4}
\bibcite{carreira2015human}{5}
