\relax 
\citation{Dosovitskiy_2015_CVPR}
\citation{2015arXiv151106702T}
\citation{shapenet2015}
\citation{Dosovitskiy_2015_CVPR}
\citation{2015arXiv151106702T}
\@writefile{toc}{\contentsline {section}{\numberline {1}Abstract}{1}}
\@writefile{lof}{\contentsline {figure}{\numberline {1}{\ignorespaces The architecture of the 128x128 network. The encoder (blue) turns an input image into an abstract 3D representation. The decoder (green) processes the angle, modifies the encoded hidden representation accordingly, and renders the final image.}}{1}}
\citation{2015arXiv151106702T}
\citation{2015arXiv151106702T}
\bibstyle{unsrt}
\bibdata{sample}
\bibcite{Dosovitskiy_2015_CVPR}{1}
\bibcite{2015arXiv151106702T}{2}
\bibcite{shapenet2015}{3}
\@writefile{toc}{\contentsline {section}{\numberline {2}Dataset and Tasks}{2}}
\newlabel{sec:dataset_and_tasks}{{2}{2}}
\@writefile{toc}{\contentsline {section}{\numberline {3}Network Design}{2}}
\newlabel{sec:network_design}{{3}{2}}
\@writefile{lof}{\contentsline {figure}{\numberline {2}{\ignorespaces The saimese network will use the same layer design of \cite  {2015arXiv151106702T}. We want to learn the network as well as the final distance metrics.}}{2}}
\@writefile{toc}{\contentsline {section}{\numberline {4}Training}{2}}
\newlabel{sec:training}{{4}{2}}
\@writefile{toc}{\contentsline {section}{\numberline {5}Results and Visualization}{2}}
\newlabel{sec:results_and_visualization}{{5}{2}}
