\relax 
\providecommand\hyper@newdestlabel[2]{}
\providecommand\HyperFirstAtBeginDocument{\AtBeginDocument}
\HyperFirstAtBeginDocument{\ifx\hyper@anchor\@undefined
\global\let\oldcontentsline\contentsline
\gdef\contentsline#1#2#3#4{\oldcontentsline{#1}{#2}{#3}}
\global\let\oldnewlabel\newlabel
\gdef\newlabel#1#2{\newlabelxx{#1}#2}
\gdef\newlabelxx#1#2#3#4#5#6{\oldnewlabel{#1}{{#2}{#3}}}
\AtEndDocument{\ifx\hyper@anchor\@undefined
\let\contentsline\oldcontentsline
\let\newlabel\oldnewlabel
\fi}
\fi}
\global\let\hyper@last\relax 
\gdef\HyperFirstAtBeginDocument#1{#1}
\providecommand\HyField@AuxAddToFields[1]{}
\providecommand\HyField@AuxAddToCoFields[2]{}
\citation{tenenbaum2011grow}
\citation{Dosovitskiy_2015_CVPR}
\citation{2015arXiv151106702T}
\citation{ullman1989aligning}
\citation{shapenet2015}
\citation{Dosovitskiy_2015_CVPR}
\citation{2015arXiv151106702T}
\citation{shapenet2015}
\@writefile{toc}{\contentsline {section}{\numberline {1}\hskip -1em.\nobreakspace  {}Introduction}{1}{section.1}}
\@writefile{toc}{\contentsline {section}{\numberline {2}\hskip -1em.\nobreakspace  {}Dataset and Tasks}{1}{section.2}}
\newlabel{sec:dataset_and_tasks}{{2}{1}{\hskip -1em.~Dataset and Tasks}{section.2}{}}
\@writefile{toc}{\contentsline {subsection}{\numberline {2.1}\hskip -1em.\nobreakspace  {}ShapeNet Core Dataset}{1}{subsection.2.1}}
\@writefile{toc}{\contentsline {subsection}{\numberline {2.2}\hskip -1em.\nobreakspace  {}Evaluation Tasks}{1}{subsection.2.2}}
\citation{wang2015unsupervised}
\citation{wang2015unsupervised}
\citation{wang2015unsupervised}
\citation{carreira2015human}
\@writefile{lof}{\contentsline {figure}{\numberline {1}{\ignorespaces  Image credit to \cite  {wang2015unsupervised}. Siamese-triplet network. Each base network in the Siamese-triplet network share the same architecture and parameter weights. The architecture is rectified from AlexNet by using only two fully connected layers. Given a triplet of training samples, we obtain their features from the last layer by forward propagation and compute the ranking loss.}}{2}{figure.1}}
\newlabel{fig:siamese-triplet-arch}{{1}{2}{Image credit to \cite {wang2015unsupervised}. Siamese-triplet network. Each base network in the Siamese-triplet network share the same architecture and parameter weights. The architecture is rectified from AlexNet by using only two fully connected layers. Given a triplet of training samples, we obtain their features from the last layer by forward propagation and compute the ranking loss}{figure.1}{}}
\@writefile{toc}{\contentsline {paragraph}{Test with categories used in training}{2}{section*.1}}
\@writefile{toc}{\contentsline {paragraph}{Test with categories not used in training}{2}{section*.2}}
\@writefile{toc}{\contentsline {section}{\numberline {3}\hskip -1em.\nobreakspace  {}Learning from 3d model}{2}{section.3}}
\newlabel{sec:network_design}{{3}{2}{\hskip -1em.~Learning from 3d model}{section.3}{}}
\@writefile{toc}{\contentsline {subsection}{\numberline {3.1}\hskip -1em.\nobreakspace  {}Triplet Network}{2}{subsection.3.1}}
\newlabel{sub:trip}{{3.1}{2}{\hskip -1em.~Triplet Network}{subsection.3.1}{}}
\@writefile{toc}{\contentsline {subsection}{\numberline {3.2}\hskip -1em.\nobreakspace  {}Loss Function}{2}{subsection.3.2}}
\newlabel{sub:loss_function}{{3.2}{2}{\hskip -1em.~Loss Function}{subsection.3.2}{}}
\@writefile{lof}{\contentsline {figure}{\numberline {2}{\ignorespaces In the first stage, we view objects from same category as the same. In the second stage, we view objects discriminately. Here 3 cars are viewed as the same in first stage, but different in the second stage.}}{2}{figure.2}}
\newlabel{fig:2-Stage}{{2}{2}{In the first stage, we view objects from same category as the same. In the second stage, we view objects discriminately. Here 3 cars are viewed as the same in first stage, but different in the second stage}{figure.2}{}}
\@writefile{toc}{\contentsline {subsection}{\numberline {3.3}\hskip -1em.\nobreakspace  {}2-Stage Training}{2}{subsection.3.3}}
\newlabel{sec:training}{{3.3}{2}{\hskip -1em.~2-Stage Training}{subsection.3.3}{}}
\@writefile{lot}{\contentsline {table}{\numberline {1}{\ignorespaces Table shows the results of our approach(Triplet), AlexNet with cosine distances, AlexNet with Euclidean distance's performance on task 1 and task 2. Our methods outperform original AlexNet by a great step.}}{3}{table.1}}
\newlabel{tab:title}{{1}{3}{Table shows the results of our approach(Triplet), AlexNet with cosine distances, AlexNet with Euclidean distance's performance on task 1 and task 2. Our methods outperform original AlexNet by a great step}{table.1}{}}
\@writefile{toc}{\contentsline {section}{\numberline {4}\hskip -1em.\nobreakspace  {}Results and Visualization}{3}{section.4}}
\newlabel{sec:results_and_visualization}{{4}{3}{\hskip -1em.~Results and Visualization}{section.4}{}}
\@writefile{toc}{\contentsline {subsection}{\numberline {4.1}\hskip -1em.\nobreakspace  {}Preliminary Results}{3}{subsection.4.1}}
\newlabel{sub:preliminary_results}{{4.1}{3}{\hskip -1em.~Preliminary Results}{subsection.4.1}{}}
\@writefile{toc}{\contentsline {subsection}{\numberline {4.2}\hskip -1em.\nobreakspace  {}Patches hit the greatest resposnses}{3}{subsection.4.2}}
\newlabel{sub:patches_hit_the_greatest_resposnses}{{4.2}{3}{\hskip -1em.~Patches hit the greatest resposnses}{subsection.4.2}{}}
\@writefile{lof}{\contentsline {figure}{\numberline {3}{\ignorespaces Image Patches that generate the greatest response at Conv3 layer}}{3}{figure.3}}
\newlabel{fig:conv3_9}{{3}{3}{Image Patches that generate the greatest response at Conv3 layer}{figure.3}{}}
\@writefile{lof}{\contentsline {figure}{\numberline {4}{\ignorespaces Image Patches that generate the greatest response at Conv5 layer}}{3}{figure.4}}
\newlabel{fig:conv5_9}{{4}{3}{Image Patches that generate the greatest response at Conv5 layer}{figure.4}{}}
\@writefile{toc}{\contentsline {subsection}{\numberline {4.3}\hskip -1em.\nobreakspace  {}How much does color contribute}{3}{subsection.4.3}}
\citation{2015arXiv151106702T}
\citation{tenenbaum2011grow}
\bibstyle{ieee}
\bibdata{egbib}
\bibcite{carreira2015human}{1}
\bibcite{shapenet2015}{2}
\bibcite{Dosovitskiy_2015_CVPR}{3}
\bibcite{2015arXiv151106702T}{4}
\bibcite{tenenbaum2011grow}{5}
\bibcite{ullman1989aligning}{6}
\bibcite{wang2015unsupervised}{7}
\@writefile{lot}{\contentsline {table}{\numberline {2}{\ignorespaces Table shows the results of our approach(Triplet), AlexNet with cosine distances, AlexNet with Euclidean distance's performance on task 1 and task 2 on greyscale images.}}{4}{table.2}}
\newlabel{tab:greyscale}{{2}{4}{Table shows the results of our approach(Triplet), AlexNet with cosine distances, AlexNet with Euclidean distance's performance on task 1 and task 2 on greyscale images}{table.2}{}}
\@writefile{toc}{\contentsline {section}{\numberline {5}\hskip -1em.\nobreakspace  {}Discussion and Further Issues}{4}{section.5}}
